Criando modelos no R
…
---
### Exploração dos dados

Os dados são do tipo *cross-section* e contém variáveis de 526 indivíduos referente ao ano de 1976. Deste conjunto de dados, usaremos apenas as variáveis `wage` (salário por hora), `educ` (anos de educação) e `exper` (anos de experiência). Para facilitar o entendimento, utilizaremos a transformação logaritmica na variável dependente, obtendo uma interpretação percentual dos parâmetros do modelo.

```r
# Inspecionar dataset
tibble::as_tibble(wage1)
```

```
# # A tibble: 526 x 24
#     wage  educ exper tenure nonwhite female married numdep  smsa northcen south
#    <dbl> <int> <int>  <int>    <int>  <int>   <int>  <int> <int>    <int> <int>
#  1  3.10    11     2      0        0      1       0      2     1        0     0
#  2  3.24    12    22      2        0      1       1      3     1        0     0
#  3  3       11     2      0        0      0       0      2     0        0     0
#  4  6        8    44     28        0      0       1      0     1        0     0
#  5  5.30    12     7      2        0      0       1      1     0        0     0
#  6  8.75    16     9      8        0      0       1      0     1        0     0
#  7 11.2     18    15      7        0      0       0      0     1        0     0
#  8  5       12     5      3        0      1       0      0     1        0     0
#  9  3.60    12    26      4        0      1       0      2     1        0     0
# 10 18.2     17    22     21        0      0       1      0     1        0     0
# # ... with 516 more rows, and 13 more variables: west <int>, construc <int>,
# #   ndurman <int>, trcommpu <int>, trade <int>, services <int>, profserv <int>,
# #   profocc <int>, clerocc <int>, servocc <int>, lwage <dbl>, expersq <int>,
# #   tenursq <int>
```
…
